Take-Home Exercise 1: Application of Spatial and Spatio-temporal Point Patterns Analysis to discover the geographical distribution of Armed Conflict in Myanmar – IS415
…
‘actor’-related columns: possible to have 1 or more actors responsible

‘civilian_targeting’: boolean-like variable — null for no civilian targeting

‘admin3’: location identifiers are still discernible at least 1 of the admin columns are filled

‘tags’: supplementary target description information

skim() from skimr package

skim(acled_sf) %>%
  tibble::as_tibble()

# A tibble: 31 × 17
   skim_type skim_variable   n_missing complete_rate character.min character.max
   <chr>     <chr>               <int>         <dbl>         <int>         <int>
 1 character event_id_cnty           0         1                 8             8
 2 character event_date              0         1                11            17
 3 character disorder_type           0         1                14            34
 4 character event_type              0         1                 5            26
 5 character sub_event_type          0         1                 5            35
 6 character actor1                  0         1                 3           214
 7 character assoc_actor_1       39191         0.240             2          1085
 8 character actor2              15363         0.702            10           124
 9 character assoc_actor_2       41011         0.205             8           971
10 character civilian_targe…     41852         0.189            18            18
# ℹ 21 more rows
# ℹ 11 more variables: character.empty <int>, character.n_unique <int>,
#   character.whitespace <int>, numeric.mean <dbl>, numeric.sd <dbl>,
#   numeric.p0 <dbl>, numeric.p25 <dbl>, numeric.p50 <dbl>, numeric.p75 <dbl>,
#   numeric.p100 <dbl>, numeric.hist <chr>
…
quarter(): extracts quarter info

# to-do: assign variable; mix in geospatial data too
acled_sf %>% 
  mutate(
    datetime = as_datetime(timestamp),
    quarter_num = quarter(datetime),
    quarter_period = paste(year,'Q', quarter_num, sep = '')
  ) %>% 
  group_by(event_id_cnty) %>% 
  arrange(quarter_period) %>% 
  summarise(event_id_cnty,quarter_period, event_type,) %>% 
  ungroup()

# A tibble: 51,576 × 3
   event_id_cnty quarter_period event_type                
   <chr>         <chr>          <chr>                     
 1 MMR10890      2021Q2         Battles                   
 2 MMR10906      2021Q3         Battles                   
 3 MMR10920      2021Q2         Violence against civilians
 4 MMR10927      2021Q2         Violence against civilians
 5 MMR10929      2021Q3         Strategic developments    
 6 MMR10932      2021Q3         Battles                   
 7 MMR10933      2021Q1         Battles                   
 8 MMR10934      2021Q2         Battles                   
 9 MMR10935      2021Q2         Battles                   
10 MMR10936      2021Q3         Battles                   
# ℹ 51,566 more rows
…
